[12:32:03]  0   0.00% -81.56250, 34.30714, -78.75000, 36.59789 (0 tiles) ETA: N/A
[12:32:03]  1   0.00% -81.56250, 34.30714, -78.75000, 36.59789 (0 tiles) ETA: N/A
[12:32:03]  2   0.00% -81.56250, 34.30714, -78.75000, 36.59789 (0 tiles) ETA: N/A
[12:32:03]  3   0.00% -81.56250, 34.30714, -78.75000, 36.59789 (0 tiles) ETA: N/A
[12:32:03]  4   0.00% -81.56250, 34.30714, -78.75000, 36.59789 (0 tiles) ETA: N/A
[12:32:03]  5   0.00% -81.56250, 34.30714, -78.75000, 36.59789 (0 tiles) ETA: N/A
[12:32:03]  6   0.00% -81.56250, 34.30714, -78.75000, 36.59789 (0 tiles) ETA: N/A
[12:32:03]  0 100.00% -81.56250, 34.30714, -78.75000, 36.59789 (8 tiles) ETA: 2016-11-08-12:32:03